{
  "interactionModel": {
    "languageModel": {
      "invocationName": "can i drive",
      "intents": [
        {
          "name": "AMAZON.CancelIntent",
          "samples": []
        },
        {
          "name": "AMAZON.HelpIntent",
          "samples": []
        },
        {
          "name": "AMAZON.StopIntent",
          "samples": []
        },
        {
          "name": "HelloWorldIntent",
          "samples": [
            "hello"
          ]
        },
        {
          "name": "CanDriveIntent",
          "samples": [
            "my license is {license}",
            "is {license}",
            "license"
          ],
          "slots": [
            {
              "name": "license",
              "type": "AMAZON.SearchQuery",
              "samples": []
            }
          ]
        }
      ]
    }
  }
}
